<?xml version="1.0" encoding="UTF-8" standalone="no"?>
<svg
   xmlns:dc="http://purl.org/dc/elements/1.1/"
   xmlns:cc="http://creativecommons.org/ns#"
   xmlns:rdf="http://www.w3.org/1999/02/22-rdf-syntax-ns#"
   xmlns:svg="http://www.w3.org/2000/svg"
   xmlns="http://www.w3.org/2000/svg"
   xmlns:xlink="http://www.w3.org/1999/xlink"
   xmlns:sodipodi="http://sodipodi.sourceforge.net/DTD/sodipodi-0.dtd"
   xmlns:inkscape="http://www.inkscape.org/namespaces/inkscape"
   sodipodi:docname="Gain-Frequency-Variable-R-circuit.svg"
   inkscape:version="0.92.3 (2405546, 2018-03-11)"
   id="svg8"
   version="1.1"
   viewBox="0 0 169.68228 119.32708"
   height="451"
   width="641.31885">
  <defs
     id="defs2">
    <clipPath
       id="clipPath954"
       clipPathUnits="userSpaceOnUse">
      <path
         transform="scale(-1,1)"
         d="m -171.69038,129.72717 h 153.641596 c 0.387774,0 0.699953,0.31218 0.699953,0.69996 v 115.15685 c 0,0.38778 -0.312179,0.69996 -0.699953,0.69996 H -171.69038 c -0.38778,0 -0.69996,-0.31218 -0.69996,-0.69996 V 130.42713 c 0,-0.38778 0.31218,-0.69996 0.69996,-0.69996 z"
         sodipodi:type="rect"
         ry="0.69995254"
         y="129.72717"
         x="-172.39034"
         height="116.55676"
         width="155.0415"
         id="path956"
         style="fill:#ff0000;fill-opacity:1;stroke:none;stroke-width:0.463082;stroke-linecap:round;stroke-miterlimit:4;stroke-dasharray:none" />
    </clipPath>
    <clipPath
       id="clipPath991"
       clipPathUnits="userSpaceOnUse">
      <rect
         ry="0.71834105"
         y="267.6232"
         x="12.537148"
         height="113.82915"
         width="165.41249"
         id="rect993"
         style="fill:#ffffff;fill-opacity:1;stroke:none;stroke-width:0.55000001;stroke-linecap:round;stroke-miterlimit:4;stroke-dasharray:none" />
    </clipPath>
  </defs>
  <sodipodi:namedview
     inkscape:showpageshadow="false"
     inkscape:window-maximized="1"
     inkscape:window-y="27"
     inkscape:window-x="67"
     inkscape:window-height="907"
     inkscape:window-width="1853"
     showborder="true"
     inkscape:pagecheckerboard="true"
     fit-margin-bottom="0"
     fit-margin-right="0"
     fit-margin-left="0"
     fit-margin-top="0"
     showgrid="false"
     inkscape:document-rotation="0"
     inkscape:current-layer="layer2"
     inkscape:document-units="mm"
     inkscape:cy="239.24826"
     inkscape:cx="379.28511"
     inkscape:zoom="1.2984375"
     inkscape:pageshadow="2"
     inkscape:pageopacity="0.0"
     borderopacity="1.0"
     bordercolor="#666666"
     pagecolor="#ffffff"
     id="base"
     units="px"
     showguides="false" />
  <metadata
     id="metadata5">
    <rdf:RDF>
      <cc:Work
         rdf:about="">
        <dc:format>image/svg+xml</dc:format>
        <dc:type
           rdf:resource="http://purl.org/dc/dcmitype/StillImage" />
        <dc:title></dc:title>
      </cc:Work>
    </rdf:RDF>
  </metadata>
  <g
     transform="translate(73.312889,21.439682)"
     inkscape:label="Base"
     id="layer3"
     inkscape:groupmode="layer">
    <rect
       style="fill:#c0bfbf;fill-opacity:1;stroke:none;stroke-width:0.81999999;stroke-linejoin:miter;stroke-miterlimit:4;stroke-dasharray:none;stroke-opacity:1"
       id="rect4290"
       width="169.33333"
       height="119.32708"
       x="-73.138412"
       y="-21.439682" />
  </g>
  <g
     transform="translate(55.760284,-113.38176)"
     id="layer1"
     inkscape:groupmode="layer"
     inkscape:label="Graph" />
  <g
     transform="translate(73.312889,21.439682)"
     inkscape:label="Legend"
     id="layer2"
     inkscape:groupmode="layer">
    <image
       id="image1034"
       xlink:href="data:image/png;base64,iVBORw0KGgoAAAANSUhEUgAAArgAAAGzCAYAAADE72RxAAAABHNCSVQICAgIfAhkiAAAIABJREFU eJzt3U9u29Yb7vGnF90FEzQecwGMgQSV5pxZAweWuwFxJgOWM7n4TWoZsGbUBhIZ8UCecU4VDZBy ARw7RcJt3N6BLZuk/piSSP05+n6AAI0tHh3JSvX41XvO+WUUhv8JAAAAMMT/2fQEAAAAgDIRcAEA AGAUAi4AAACMQsAFAACAUQi4AAAAMAoBFwAAAEYh4AIAAMAoBFwAAAAYhYALAAAAoxBwAQAAYBQC LgAAAIxCwAUAAIBRCLgAAAAwCgEXAAAARiHgAgAAwCgEXAAAABiFgAsAAACjEHABAABgFAIuAAAA jELABQAAgFEIuAAAADDKr5ueANYl0nW9o6DALW3b1kHtVB8OHVnWjBsliaLbS326jxXHT1fKduv6 4/hIzqzrAAAAKvbLKAz/2/QksA7FA+4zW97AVyMfVpM7tZq+4qnXPFzndn2dOUtMEwAAYEW0KGCO WP7lnZLM1yJdzw23D9cFHU/DZO6NAAAAKkGLwp6yWwP1J0qzkpJI181UpTcO9S05eqriJsPPmSpw epxk6OmkP46+sfzbSI02ZVwAALBeVHCRZTk667qpL8T6/nP834m+jVK1W9vTx1RIthoX8uzUpfc/ RREXAACsGxVcLOT1gS1bkuJYqr1VtgZs6fWB9EL/AgAAQKUIuMhIkjt96WSaEPTm1fi/LTltX7Ob DhL9uE/99eCV2EwBAACsGwF3T8X9pmr9Ajd0Tyd3UZghGV7KT1Vv3Xf03wIAgPWjBxcz2W5XN0UX iUW91AIzSbanD+RbAACwAVRwkWPL7V7og2MVbi9Iop5Ocm0N3sUR7QkAAGAjqODuKbs10CgMNQoH umqltz6IFXy+1c+ZV2YlQ28y3E47HAIAAGBNCLh7z5LT8HWV2Rks0LmXP+BhUnbfW0m2qyvCLQAA 2DACLiRJTrurdMZV7OukF828/WS49XTjt+UQbgEAwIYRcPEof8CDpODz9ON2cwvKbLerkU/PLQAA 2A4EXDxzjrMnkSmWf5lrVUju1Er33Lpd9TmOFwAAbBF2UUCKpcaFp7DpPx9GFvv6Eh3p7DHDRrd+ 9qCyoKNaoOlsTzdUdgEAwJpRwUWWdaSPmV0VpKDT00M3bqS/Z4VZAACALUHAxQSrcZFrVQj0aZhI 0VeRbwHAVImGXl21+viPN30dRuaSO7XqqWvmLE7eDYmiYU/DXX8Y0C+jMPxv05MAAACbl98hx24N 1J+z92P+9m43fGpp2zVJdKcvn30F8W4/DjygggsAACRJ1mFdmaN/Rv/M2RM90beRIUe0J3f6s/MQ bmEGAi4AAHhgHemPzME/ob7NSrjJPwrT+bb2lkXF2BrsogAAAJ4471wpGK+4iBV+S9SY0qaQfAtT u+rYqh+WG28fWgZCBXHqXmxX9dNjNaadKhT1VHvaxnLKsfHJnVqpXYLGbQgTBxdJCjr1hzUn7Aa0 s6jgAgCAZ867zMmW09sUIn3JnGZZV3n59mGx20nHz4RbSYrjQH6nqVYvevE4eew3Ai4AAEhx9P6l NoXcrjpltidEvab8F3ph46Az9zh5gIC7w2r10aan8GSb5gIAWI3zLpNwFeYSbvQ1HW9d/TFnp4WF RD2dZ5Kzp6tBqFEYajToZrewDDq6LiHjWg1fo4GXWVzndh/vk/aEnUXA3VHbFChr9ZFGYW2r5gQA WMHcNoXcoT/uO5W1eUI+OF/5R3pqt7UcNfxuZl7BV6q4mI6Au8MIlQCAasxpU8i1J7jvSou3BYJz bl73P+nFxVQE3B00rphug/RcCNwAYI5ZbQr5Kuv7iva+tX97NfXrr35LNRPE3/WzmrvHjiPg7jhC JQCgEs5xpuc17t8qylVZ7dZxae0JQJkIuDtmW6u3YwRuADCFpcNaZlWX/u6l2xPK3/s2Lf53em32 57/p7cneaHqdd9qF38VBZfuDgGsAQiUAoAr5o3uDIF2+LXPvW2mivzb4qsklZLk+3YNXM3Y5iPU9 l4+TH/erTxE7g4C7Q7a9ejtG4AYAQ1hvVbenf6uKo3mzfb+Bzr07ReNVZEmkodfJVJC941SDxKs3 2TD++fnaJOrpz/6c+q31Sgepv96zO8PO46heQ4xD5bYEYACACR7aFPw4Hw4rak9wjuXZwfNBD7Gv 86Y//bbuafYo3seQ+jTTede+IA46qgWS5OoqbNNnvIOo4O6IbQqvReZCFRcAzJBvU5A0GS7Luzc1 /EH2QIcpbLerUTsfOx2ddd2pt3+8SO7McXPtEdh5BFyDECoBAKWb0qZQ3t63U+9QDT/UTdeTa2fv 2LZdXQ0G6k+E20dO+/G6zEVyuwPd+Md6M+denfZAV27+/uZdgW32yygM/9v0JDDfItXbqiu9i46/ TZVnAACwH6jgGoYqLgAA2HcsMtty21QBXWYuLH4DsGm1+u8v3mYU/rWGmeyBqKdaJ3j5dlO43VBn rOZCSajgGogqLgAA2GcE3C22TZXPVeZC4AYAAOtEi4KhaA0AAKyd09YobG96FsD+BNwiPVjr9b8X b7Et4bSMoFxW4C5WCf6/K90HgP2zfe8RkOiNxvL2JuBK2/YPpVb5PZhaxX358WzTzxnAprHIbDfx SwdWQQ8u5iozIK/ai2tiWAcAAOUj4BqOBV4AAGDfEHAxUxUV02UDN9VbAABQ1F714O4rU3txAaCI fH9trf47PbeA4ajgYqoqA/GiVVzCOQAAWAQBd0/QiwsAAPYFARcT1lExLRq4qd4CAIBFEXD3CFVc AACwDwi4yFhnxZTADQAAqkDA3TO7FCppTwAAAMsg4OLJJgLlLgVuAACwGwi4e2gXQiXVWwAAsCwC LiRtNlDuQuAGAAC7g4C7p7Y5VFK9BQAAqyDgYisC5TYHbgAAsFsIuHtsG0PlNoRtAACw2wi42JpA uS3zAAAAu42Au+e2LVRu23wAAMDuIeACAADAKARcAAAAGIWACwAAAKMQcAEAAGCUXzc9AaxLoqh3 qU/3seL44StuN9SZI0mRrusdBQVGsW1bB7VTfTh0ZFmpb0Q91TrjEWzZ7qk+th1Z0wYBAACoEBXc vRDput7UefAcbpcVx7GCfkcnTU/DZOatFAcdnXg9RavdHQAAwMIIuPsg+lqoOruYWP7lnWZmXEmK A/1NwgUAAGtGi8IeSH7cP//F9nTjH81tHbBbA/UbU26RRLpuploZ4lDfkiM1LElOW6OwLSnR0GvK f6wU3/9IJIdGBQAAsD5UcPfAz3+f+xLs2tvl+2ItR2ddN/WFWN9/TtxIhzX7+Rb/TtwAAACgUgRc AAAAGIUWBRSWJHf60kl389p682pj0wEAAJiKgIsJcb+pWr/ADd1TTWvVBQAA2CRaFIyXKL3GrCy2 29VN25n6Pev1wfNfgq9sFQYAANaKCq7REkXDy6cdDSRb9cNVSq623O6FPjjW/IVqr97IlvRwt4E+ Dd/pVYNDHwAAwHpQwTVV1FOt3tR5P7WDQuuiUEuB3RpoFIYahQNdtezUd2IFn2/14r4I1pE+pq6L +x2d1Ou6ppQLAADWgIC7J2y3O31v27ksOQ1fV5mdwQKdey8c8CDJavi6cu0XbgUAAFA+Au6eiIOO WrPP1p3LaXeVzriKfZ305pdjk6Gn82DFc4EBAACWQMA1ldOeaDGI+5daLuPmD3iQFHyePVZypz8z rRFd3YShzqavSQMAACgVAddolpzGaar6Giv8tlwVV86xvEzHQSz/cnqrQvIt1HO8dfUHC8wAAMAa EXCN5+i9+/KtXmapceEpm3F9fXlp4Zj7ThRuAQDAOhFwUVxudwRJCjo99rkFAABbhYCLhViNi1yr QqBPSy5eAwAAqAIHPUCSo7Mw1Fmh21pq+KEaFc8IAABgWVRw98Cr31I7KYz+UVRlwTWJ9G2U2kHh t1cV3hkAAMAkKrh7wHp9oPHBuYp9nTd9SZLbLXHrrqinWieY+PLBa/ZPAAAA60UFdx9MbPG1Lq7e s4UCAABYMwLuXrDU8Ae6cm3Zawm6tmy3q5uwzRZhAABg7WhR2BuWnLZfXeB02hqF7apGBwAAKIwK LgAAAIxCwAUAAIBRCLgAAAAwCgEXAAAARiHgAgAAwCgEXAAAABiFgAsAAACjEHABAABgFAIuAAAA jELABQAAgFEIuAAAADAKARcAAABGIeACAADAKARcAAAAGOXXTU/ALImGXlN+PP67LW/gq2HNu+RO raavp0vcrkZtZ8aNI13XOwoebqirsK1ZtwQAANhXVHBLZemwZqf+Hiv8lsy9IvkWPodbSe672ZE1 GX5+DLcAAACYhYBbMuuwrkzEHf2j2RE30bdRKt7anj7MLN72dNKPZ3wTAAAAYwTcsllH+sNN/T0O NbOIm/yjMJ1va281rZshGXqqdajdAgAAFEHArYDzLpNwZ7YpZNsTbNUPc/E2iXTt1ancAgAALICA WwXnnTIRd2qbQqQv6eBq15XNt5Gumx0F6Zukex8AAAAwFQG3Eo7ev9SmEH3NLBib1Z7w8E1XXneg jzUSLgAAwEsIuBV5qU0h+pqOt67+mLaXmG3L7Q5047fVcObtNQYAAIAxAm5V5rYpRPo7k2/fTdnP 1tGZ7+vMsWZXdgEAADCBgFuZOW0KufaEeXvfAgAAYDF7FHD/t/Z7nNWmkG9PeE++BQAAKM0eBdwN cI7lpdaFxf1bRbn2BLt1zHG7AAAAJSLgVip/dG+gv3vp9oQpe98CAABgJQTciuWP7g2CdPk2v/ct AAAAVkXArZr1VvUZ29fO3fsWAAAASyHgVi7fpjBGewIAAEAVCLhrkG9TkCS5p5p2tgMAAABWQ8Bd hyltCux9CwAAUI1fNz2BstXqo8LfG4W1SufyzFLDD9VYdZSGr9GqgwAAABhu5wPuKqF1c4EXAAAA VdnJgJsOpquE0vy1ZY0LAACAzdmZgLuO8Jkel7ALAACwm3Yi4Nbqo5VD5qJj5MMuIRcAAGA3bHXA HVdRNx0uR2Fta+YCAACA+bYy4G5jmBzPZRvnBgAAgGdbF3C3vR0gHXS3eZ4AAAD7aqsC7i6FxnHb wq7MFwCwoiRR9O1Wn0aB4jj1dduWWzvVh4aj4gdURrqudxRIklxdhW1x/A9Qnq05yWwXw2K6NxcA YK5k6KnWbOq8nwu3khTHCvodndQ9XUdJwfE+P4ZbAFXYeMCt1Uc7GW7HxiGXoAsAu+J/C9066tV1 0s+n2mliBZ2mWsMXQm7UKzgegGVtPOBKu79ga9fnDwCYLhl6Os+UWm153YFGYfj4Z6Ar185cE/dv Fc0Zr9ahdgtUbaMBd5crt3m0KwCAaSJ9yVRaXV2FvhpOutPWktP2ddNKh9xAn/JV3CTStVe0Egxg VRtbZFZmuC0aLF+63arzYeEZABgk+prpk7VbxzMXglmNU7n9z7p36/rj3Vs5mRAc6brZyY5la7KX F0BpNhJwyw6BRcZaV/Ak5AKAGaKvmUiq+uG8PRIcnYUF9kGwXXmnxzr8cakTEi5QmbUH3H0If4Rc ANh1iX7cp/9+oNfF9wCbZNtyTy/0wbFkSUp+rDY7APNt1T64AABsJfuNXi19saMzn11ugXVa6yKz fapqsugMAABgM9YWcPcp3I4RcgHAEPF3/dz0HAAUthX74AIAsF0svT5I//1eP+ae35Bo6NXV6t1p WPA0MwDVWUvA3cfq7RhVXADYTc47N/W3WOG3OcE1+UdhLMWBL7/TVK0366gHAOtABRcAgGmcd8pE 3JknlCUaXvrKHAnxjkVlwCZVHnD3uXo7RhUXAHaRow+5E8rO6162BSGJNPSa8tPp1vb0gXwLbNTe bBO27yEbALA4q+Hr6t+6zp/OfIjld5ryZ15hy7s40ipb5gJYHS0KAADM4bRD3WQquTPYrryBrwbp Fti4vangAgCwLKvha3SYKPp2q0+jQOlTdm3bVf30WIePp5QB2LxfRmH4X1WD03+bxfMBAJvH/4t3 Q63+u0bhX5ueBnYULQoAAAAwCgEXAAAARiHgAgAAwCiVBVx6nCaxHy4AAED1qOACAADAKARcAAAA GIWACwAAAKMQcAEAAGAUAi4AAACMQsAFAACAUQi4AAAAMAoBFwAAAEb5ddMTAACgiDIPyilrLA40 ArZTZQF3fGoX//if8XwAwPL4/yeAomhRAAAAgFEIuAAAADAKARcAAABGqTTgjvtwQf8tAADAulDB BQAAgFEIuAAAADAKARcAAABGqfygB/bDpf8WAMqwjWs6+H87sJ04yQwAsBPKCpMUHQDzraVFYZ93 U+B/pAAAAOtFDy4AAACMsraAu49VXKq3AAAA67fWCu4+hVzCLQAAwGbQogAAAACjrD3g7kMVl+ot AADA5mykgmtyyCXcAgAAbNbG9sEt8wCIssLyqnMh3AIAAGzeRg96KCvkbkOoJNwCAABsh61YZLbr 7Qq7Pn8AAACTbPyo3nHVc1croLs6bwAAAFNtRQVX2s2FZ4RbANg3ka7rddXqddXqPUWbno7havXR zmUDbIeNV3DTylx4VrVdmScAoDzJ8LOCTU9iT4zCvyTVJGVbAXnvRRFbFXClbCV3G1/E2zw3AECF op5O+vGmZ7GX0u+5hF0UsXUBV9revtxtmw8AYD2SoUe43RLTwi7vzcjbyoA7ti3V3G2YAwBgA5JI 15cdBQtl20jX9c5jK4Mtb+Dr8OedvnwOFcSPA9m23NMLnTlW6VPeJ9taEMPmbXXAlbIv3vTf14Fg CwD7LNJ1s5PpubVtKV6wkPv91pOfT8hxrKDT1H1roH6DkLuqXVrDg/XY+oA7lg+6+a+XocqxAQA7 zHblnR7r8MelThZKuLGCOavS4v6tokZbzsoTBCEXaTsTcMfyL9xVQimBFgAw12MrwQfHkiUp+bHk MK2uPjYcWUo09JrynzJyoL+jthwSbikIuRjbuYCb91LgXeRaAACeOTrzS0ietvcYbiXJUuPUld9h s7GqEHIhGRBw82a9oHmxAwA2wa69VabL9tUb2ZLYkwGoztacZAYAAFCGXTwdFeUi4AIAAMAoBFwA AAAYhYALAACMQ5vCfiPgAgAAwCgEXAAAABiFgAsAAIxEm8L+IuACAADAKL+MwvC/TU9iHWr13zUK /9r0NAAAG8b7wX6ZftBTpOt6R+Pz5OzWQP2GpeWlx3N1FbbF6cubRQUXAAAYaV2nmCbDz+Lw5e1C wAUAAFhW1NNJn4OXt82vm54AAADALkqGHuF2SxFwAQAAFpFEur7sKCDbbi1aFAAAgHGq67+NdN3M hlvbruBusBICLgAAwDJsV153oI81Eu62oUUBAABgEbYt9/RCHxxLlqTkx6YnhDwCLgAAMEq124M5 OvPZ5XbbEXABAMDWmHa07jr2soVZCLgAAGAjiobZRULvug53wHYj4AIAgLUaB9aiQXRe6E1/j3CL MQIuAABYm7JC6HiMRcMy9gMBFwAAVK6qIJoOuoRcjLEPLgAAWJtp/bSrjjcOt2WPjd1FBRcAAFSu 7F7ZMivCcb+pWn/eLWx5A18Na+W7wpoQcAEAwFqlq62LBtR5143HpVUBBFwAALB2+UVi6a9Nw2Iy LOKXURj+t+lJrEOt/rtG4V+bngYAYMN4P9he83poFwm2VHFBBRcAAGwFQinKwi4KAADAKOyoAAIu AAAAjEKLwjokd2o1fcXpr7ldjdrOAmMkir7d6tMoUJweyLbl1k71oeGonN1LIl3XOwoeJqmrsK0F ZgkAwFZgR4X9RgV3DZJvYTbcSlLwVVHR64eeas2mzvu5cCtJcayg39FJ3dN1lKw+1+Hnx3ALAACw mwi4lUv0bTQRbyUF+jR8OZBGvbpO+tOuz4sVdJpqFRhzzp0VvC8AAIDtRcCtWvKPwqfM6Mp1n78V j/7RvDiaDD2dZ8qptrzuQKMwfPwz0JVrZ66J+7eFK8P5+6p1qN0CAMzBYrP9RcCtWKY9wX6jD+/S CTfUt5kJN9KXTDXV1VXoq+GkO20tOW1fN610yC1WGX6eYKRrr2iVGAAAYPsRcCuVbU+wa29lOe/0 HHFjhbMSbvQ10wtrt45nLvayGqdyZct2PV11B+oXPiw70nWzoyCVbW179q0BAAB2AbsoVCnTnmCr fmhJsvTelYLH9BqP/lHSOJrYASH6mom3j9fO4ugsXHGvA9uVd3qswx+XOplYyQYAALA7qOBWKNue UNc4ozovtikk+nGf/vuBXpezB9gk25bbHejGb+faHwAA2G1sE7a/CLiVye2ecPDquUpbtE1hzH6j V6XPT5Icnfm+zhyrpD10AQAANo+AW5VMe4Lkvku3EDh6v8BuCgAAACiOgFuR7OEOrt7nWmRfblNI ib/rZ7nTAwDAaLQn7DcWmVUif7hDoPP6vD1mH9oUGk+7H1h6fSA9J+R7/Uik2S2yiYZeU+GBp/q7 t/TSAgCAvUYFtwq59oQi8gc0ZCq8L/XpPt5fHPjyO03Vessc9QAAgBmo3oKAW4Fse0JRgf7OJlxl Iu7ME8oSDS/9zP1l+30BAAD2Cy0Kpcu1J9iebvzJfW4fbnqnVvM5nAZfI50543Dq6EPLVvB0wlig 8/q9vO7FcwtCEml42ZGfTre2pw/kWwDAjlnkSN151Vmqt5AIuOXLtSfYtbezt+Cy3qpu+4qfE66i tvN0YpnV8HX1b13nT+27sfxOU/7MO7flXcwI0wAAbJl0qF0klI6vI8hiFloUSpZvTziYe0KDpcNa +mzcXJuCJKcd6qZV4Pxc25U38FX4lF4AADakVh89VVrHfxYxviZf9aV6izECbqnyuydMbg+WZx3W lYm4Xyc7ba2Gr9FgoKuWKzuXdW3blTc+iYxwCwDYUuMwmg62qxqH3EXaG7AffhmF4X+bnsQ61Oq/ axT+telpAAA2jPeDzamqwkrLAvKo4AIAgMqNw23Z1dZ0RZhKLsZYZAYAACo3rq6mg+gqFVeqtpiH gAsAANZqHEqXCanzrhmHZ0IvCLgAAGAj8kF3kWvmfX+5kBvput7Rw86crq7CtmauE08SRbeX+nQf P2/1KVu2W9cfx0dyWPS9cQRcAACwUdtQcU2GnxW8fLOJQ5qexYqDWOdBKLfr64xDlzaKRWYAAMAo Cy84i3o66U9G1ik31PXUcJsWK+h4GibF7x7lI+ACAIC9lQw91TqFarcTVV67NdAoDDUK84cyxfJv J/e1x/oQcAEAwP5JIl179YKVW2niMCfb08fUCUtW40JeOuPe/9S4iBv16qrVH/94d8oXd5Oh9/z9 ek9E49URcAEAgHHmtylEum52FKTzqj3jpimvD2zZti1bkl17q+xaMkuvD5adLcrGIjMAALC/bFfe 6bEOf1zqJJ5XzbXktP3ZOyso0Y/71F8PXonNFDaHgAsAAPaPbcs9vdAHx5IlKfmx2nDJ8FJ+Kh+7 79hGYZMIuAAAYM84OvNLDKD5XRhsTx/ItxtFDy4AADDSwtuFLSGJerldGGx5F0e0J2wYFVwAAIAl JEMvtwuDLW/gq0G63TgquAAAAAuaCLe2q6slw+3Pf4tuVYaiqOACAAAj1eqjSo4Bngy3nm78gm0J 8Xf9lGhhqBgVXAAAgKJyC8pst6tR0XArSbrXj8xJD5H+LnaQGhZAwAUAACgiuVMrvaDM7arfXnS7 hFj+5fg0s0RRryPybfloUQAAACgguvWV6ZYNOqrNSqfz2hZiXyd1v/T54RkVXAAAYJzy+29LaiV4 POo3+6UC5wRjIQRcAACAl0RfS2olqOvjwJP7mGltt6v+6UEpI+MZLQoAAMAoy1RvrYavUWPODZy2 RmF7pXk939mRzvwjnT0PXt7YkEQFFwAAAIYh4AIAAGNUtfctdgsBFwAAGIFwizECLgAA2HmEW6Sx yAwAAOysWn0kSVsdbp12qBFryNaKgAsAAHbOLgRbbA4BFwAA7AyCLYog4AIAgK01DrRjBFsUQcAF AABbp1b/XdL/CLRYCrsoAACArUS4xbIIuAAAADAKARcAAABGIeACAADAKARcAAAAGIWACwAAAKMQ cAEAAGAUAi4AAACMQsAFAACAUQi4AAAAMAoBFwAAAEYh4AIAAMAoBFwAAAAYhYALAAAAoxBwAQAA YBQCLgAAAIxCwAUAAIBRCLgAAAAwCgEXAAAARiHgAgAAwCgEXAAAABiFgAsAAACjEHABAABgFAIu AAAAjELABQAAgFEIuAAAADAKARcAAABGIeACAADAKARcAAAAGIWACwAAAKP8uukJVKVW//3Fr43C v9Y1HQDAhvB+AOwfKrgAAAAwCgEXAAAARiHgAgAAwCjG9uAWMa0vCwCwf3g/AMyy1wGXRQUAYL4i 4ZX3A8AstCgAAADAKARcAAAAGIWACwAAAKP8MgrD/zY9iXWo1X+nxwoAAGAPUMEFAACAUQi4AAAA MAoBFwAAAEYh4AIAAMAoBFwAAAAYhYALAAAAoxBwAQAAYBQCLgAAAIxCwAUAAIBRCLgAAAAwCgEX AAAARiHgAgAAwCi/bnoCs9TqdUn/r+Qxfy91vFH4V6njAQAAYHVbG3BHYahafTtDZK3++1bOCwAA AFveojAK/yq96roqwi0AAMB22+qAK21XyCXcAgAAbL+tD7jSdoRcwi0AAMBu2ImAK2025BJuAQAA dsfOBFxpMyGXcAsAALBbdirgSusNuYRbAACA3bNzAVdaT8gl3AIAAOymnQy4UrUhl3ALAACwu3Y2 4ErVhFzCLQAAwG7b6YArlRtyCbcAAAC7b+cDrlROyCXcAgAAmMGIgCutFnIJtwAAAOYwJuBKy4Vc wi0AAIBZjAq40mIhl3ALAABgHuMCrlQs5BJuAQAAzPTrpidQlXHInRZiCbfAJkW6rncUPP7Nbg3U b1gbnVFx6bm7ugrbcmbeNlE0vNWnfqB4/CXblnt6oTNn3uNd93VFLfLY90CSKLq91Kf7WPHzEy7b reuP4yOV8pQDWJqRFdyxaZVcwi2AZSXDz0/BfL5I115T5+mwKUlxrKCPJqXXAAATeklEQVTTVM27 U7IV1xVX/LHvgeROrWZT50E63EpSrDjwdd70dB1tanIAJMMDrpQNuYRbAEuLejrpxy/fTlLU6yiY d9PY15/Dyci57usKW+Cxmy/SddPX/GcjVtDxtMpTDmA1xgdcaX67AgC8JBl6qnUK1i+TO31K3dRu dXUThhqFA3nu89fj/q2iTV5X0EKPfQ/kK9l2a6BRGGoUhrpp2anvxPJvKeMCm2JsD24e4Rb7IInu 9OVzqCDzuakt2z7QHxftOX2BiZLoVn9+DjIfudq2q/rpsRrLNBQmka4vP6fmYsvtXuisUONmoqh3 qU9BnO0nrZ3qQ8PR7NmU/DiSSNeXL1RH85d8C1PVPVd/PM3XUuPYUxiMq3+B/o7acpzNXFfFY496 dZ0/pj+7NVD/8KeGt5/ljwexXXkXbY1brpOopz8747YKW3brVB9n/nyXfE0kUW4O475kaeg15Y+/ XKgXPNG3UfqF5elj6hqrcSFv9Dym7n8q0cPczH9ugO2yFxVcYB8kQ08nHT8XbiUpVhwHOm/WZ/QF PvRvnnQC5S+N40B+p6laL1qshzPqqdXs5Oby2A/a+/rCA7lTq/7Y35idjIJ+Rydeb0YlsuzHEem6 mQ14tj371mM//01d4L7LLsSy3qqeGuP+x/Ns1n3dfMs99ozRpVrNznN4kqQ4kN/0NEwSRT3v4Wf1 /E3F/Y5OelN+usu+JpK7KXN4eB22hj8XfEAPXh/Ysm1btiS79jYXHi29PigwiKHPDbBNCLiACZI7 /fnUI2nLGzx8ZDoadOWlgknQyb/ZJRp6Bap0QWeBHs5I151gdo9iEMxZrFSgvzEOdD6xaKqKx5Fi u/K6A32svZTyEv24Lz5s/O84SKz7ugUUfuy5+4rjGT/HWP7jAq2pgs+53tVlXxPzr4v7nedKa2GW nLavvu+rH4ZTqpq5n8fBq6nVUzOfG2C7EHABA0S3z29Wduvi6WNOWY4OM8HkXpkiXnSbfSNzx/2b oW66njIdhQV7OCdW288Z86Vrn/sbB7pK9zfGvr6kJ1PB43iYgC23O9CN3y7Y3vBT39NVz99e5b6f q/Dd/3wMHuu+roCFH/sUbqofeOIH//yLWL53Nfz2PMtlXxPzX4fu3NfhspLhZeZ16L6b0w+yZ88N sG4EXMAATjt8WuiSrypZcz4zjb6mVyd5umk/9+tZzpE+tuyHCl6rq5tBkX1PJ3sU82P2u+7UKyeu dbupx2LJaVxkq9Ffn9+xy38ckuTozPd15lhzen5NVcZjd3XVfu4HPsxVgNO/iFmH9RmhatnXxEuv w/bDa6JM+Z0mbE8fZr7Q9uy5ATaAgAuYKEmURHca9jy1Zq6Af/njVKvha+S31Wg4sgolnVxFcaJH UdKrNzPesLPXTla/ckHgqRpZxePAyuw3SteT879oHbxO/SCsV5r+a9iyr4mXX4ezg+PikqiX22nC lndxNPuXgz16boBN2ZtdFADj5VdEv+ilj7cr8viGPTHL5KfSOTXo1OcfLBB/109J1qYeB1Zg602R H9PSr4kCZr0OF5QMvdwewba8ga/lNx0w57kBNokKLmCCx10L0uHWflwcdDOzJQDle6U36dbHiUVd s6rN674OZZgIt7arq5XCLYCyUMEFdl6i4efUrgW2pxs/9fHozBVVj+Ho8cKHcFTuO/PUMXOVpye5 qpHbDQvumVv94yjucVFXwdLXc7V53dftiKVfE1kLvQ4Lmgy3uX93Vdvi5wbYBlRwgV2X/KMw3Yt3 mn2TTWbuI5VbYR98nczCUU8tz9P13Z2iQsvvsxXFaav2swcTzL42vYhsvioex/Je/ZZ5ELlTx7I/ q3Sv5bqv2w3LviZWeR0WkFtQZrtdjdYZbiVt7XMDbAkCLmC4zEEAOc67dPtCbr/MJNL150BxHCvw fZ03Pb28hWxuYUvs6yR1uEIS9VL79b5wbdBRa5i+9k6tel2t3p2GuZRa/uNYXnaBTqBPT48hyWzn Jrl672zuut2w7Gvi5dfhyczX4QuSu+zCTberfnsTT+wWPjfAFqFFAdgVyZ1aqc3Znz6SzH1UGXR6 ej9oy7ESRcPLp+NBp3KO5dnB896dsa+Tuj/9tnZdhwVKVFbjVG6/87zgJejoZO7ql9nXxv2OTvq5 GwW+4sBXmD4+tILHsTTrSH+4/tPzPvUxSLJbx7lTx9Z83Y5Y9jWxyutwnuwvDQ/j1maNW3HbwrY9 N8A2oYIL7DxHZ91cBbNZV63e1PlEJSbW98w6JEsNvyv3pT2BbFdXhd+oHZ0N5h3o4Mqdue7tpWvH 0+nqY2YlTxWPY3lO+4W52F5u/pu5bjcs+5qYf53teVp8+WWkv7cqCG7TcwNsFwIuYAKnrZuulws5 tuzHE4quUu9Wwef8sZ2OzvyH3Rbs3DuenTrNaqHqn3Wk/qArLzOh8Xzaev/itQNduXZuPvbTzhD9 1Mb0lT6OpT3M5aqVm8vjPGb3a677uh2x7Gvi8XXopi8a3/4ou+CuUH9y9HX+VlybsC3PDbBlfhmF 4X+bngQAAGs1q+UHPDcwAhVcAIBxol5dLa+n4TBSMrGoML8Ar+DhCobgucE+YJEZAMA4r36zFQeB 4jiQP2XRXYZ7uleHM/DcYB9QwQUAGMdqXMh7afWVJMnV1Ua2+docnhvsA3pwAQDGSqI7ffkc6j6O s9t72bbc2qk+NKYtWNwPPDcwGQEXAAAARqFFAQAAAEYh4AIAAMAoBFwAAAAYhW3CAEhKFA1v9eN1 Ww0WTRsu0nW9U+hELtu2dVA71YdDR9ZCq42y92G3Buo/7TU173urWuF1nCSKbi/16T5W/LTiypbt 1vXH8ZGcZaa46JhRT7XO0zMjb+CXt0XXeC5BakGZ7co7PVZjqQe3xJhVPr6JuaUPq1jkvor/+3gY 2tPN+KTAdT4+vIgKLrDnkuhO115T5/1A3zc9GWyVOI4V9Ds6aXoaThwIsF1Weh0nd2o1mzoP0kFU kmLFga/zpqfraAvGXFZ6LpmpBPI7TbV6S0ykijFLk2h46Wfnhb1DwAX2WXKnPzu+At4JMFcs//JO 5WRcR2dhqNHjn1Kqtyu9jiNdN18KQ7GCziIhv4oxl/XyXOKgs2DYrmLM8iTDS/n8P23vEXABYI/Z rcFT2Mz8GXTlpm8Yh/q25VXcZSTDz5mPo9PPx00rfRpCLP+2WGKrYsylRV8zc3G7g6k/3+DzAr/A VDFmWaKeTvqrpNvsL2D5P9mfn+SeHrFX8JaiBxcwxkP/4adRkPtIdNzz91ZOqpEyGXoTbwRBp/7w xpXuKxuP3cv32s3ZDD7di2Z7uvHf6mfuetv1Fu9tLGHc8eb2QeZJsmXbB/rjoj2/L9L2dOO/0hev 81wttF1dpa5bdPyoV9f5ePjWQP3DnxrefpY/vgPblXfRfurlS6Ke/uwET72FdutUH6vYkN9ydNZ1 FTz1FMb6/lNa/Y5e6sGt8nWcl+jbKHWt7eljai5W40LeqPlcDbz/qUQvPddVjClN9oa6ugrbeqnV ONEbubate8WKD7o6G78ALUcfWraC8XMXf1fRH28VYy77+CbG6BTunl1ccqc/U681uzXQWeEJlvH4 sAgCLmCESNfp0JURKw5inQf+cgt6Mos10sPGCuKOgpGrK3/e/6i/64s3+fFxHPg6D8IVFmIsPu60 MPR4leI41nkzkNsN57xpTbnPWE/v4CuPP7pUqz+lp7F5Lw0u9Pr2Uue5O4/7HZ3829XIiCNVK3wd z/D6wJYtSXEs1d7mwpil1wfSos2c5Y+ZaOilw5Etb1AsHFnOkc6co6nf+/lvOoi/0auCsyl/zOUf X1rUS/3iZNuK4wV/cHPl+npzv7i8eG0Jjw+LoUUBMEDUew4Fdqurm9THzOkz5+P+5YI9fwV6CeNA 596cjyLjYE5vZCy/2dNSH9IuOm6m+mLLG0x/joLOnPlMuU+7dfzwRlXC+HH+yNTM42nmwm1K8Ln0 Xs4kuctVw2y9KZqAllTd63gWS07bV9/31Z/aD5zox33qrwevClQjyx8z6jUzPaVud/XV+UnU06fU j9eeCOLrG7OUxxf1nj4Jke3p4+nBggPMl+3rteVdFG9NqOLnh5dRwQV2XqS/n95UbNUPUx93Wo4a F57Cy1AH9brev33+6N5q+BodZquz+eritF7ChzfsRNHwUudPH0X6+hIdzal82nK7F48fZSaKes3n NyMF+jQ8lrPU//GLjxvdPj9Ou3Xx/AZjOTqs2fKfqj33+pFobuuE2x08fyz7qLTx3a5u2o4sJRp6 zdximeeth7LV4ljht0SNJZ7DuN9UrV/ghu5pxW/K1b2Ol5VfrOS+W33QRcdMhl7qNb3ox+LTBpzy iYzbXaAaWe6Y5Ty+dGvCY/j82Vt0kLnjf0l/MrPAv4XSf34ojAouYJRY4W2UraZaR+r7vs6OFt3L M9dL6HZT1ShLTuMiW5n8OrsOa7cuUoHQktPOLkaJR/8stRhlkXGd9uyV+9brBao9bnci3JY3vqur 9jjYWTqsZRe0pIOzdViXnb+8IvZj6F6fMl/HS8ovVrI9fVj1KVhwzO+32ZaXUlozfn7PBlHb09Xx ij3cS45ZzuPLfvyf+eWyJNlf9G15x8VeCJX8/FAYARfYea/0Jv3xbdDRSb2umtfT9TBSsvRHuT/1 fW6lKRfA7n/OCKm26of5/6k7ep9Jog+LURaz4rhJoiS607DnqbXAwhT7t4Kf0y8zfq5nMR+MD16n Hq/1SuV+CDsxGbndgW7CUP12BYvYJlT1Ol5cktmwX1r0I+lyxowVZFpSpr3eSxD7Om/W1Sqzx6XQ mOU8vkxFfKG+2ML3kPtFv2j1dk0/P8xEiwKw8yw1Tl2FTyvrH8WBgjhQ0JckW25rxo4HsyQ/lW4V fFqZPsvMFdMHej3lTl/9Zmvh1TurjptE2R0KlrnXaXda4vizVdMDO7PtRLGCz7d677TXtA1SRa/j BU0uFFz9RKpyxnzYUqyxaiXdaWsUtpX/ecf9pq5fL9naUcqYSzy+TN+7q6u5O2YsKbotqU2lpJ8f CqOCC5jAaas/6Mqd+Zn144lU3pILulby0HO68XGjnlrNTiZ82rYrrzvQTdedc+GWjF85S07D11Wm Av7CAsKybfh1PBFEbVdXZYfbVcYsdTHhYm1GaxlzwceXfAtTvwwFOq/XVRv/yVTLY/nNh68vWqmO vqYbaFdsU6lgMShmo4ILmMJydOaHOlOiaPiP/h7l92LVQ2DpvSu2pdTjR+BlL9wZy2wnVKLp4yYa fk5VBvP7oxZ+D55VRS1r/M1z2l25QWpLo9jXSe/V+rYhK/t1XNBkEH1pD911jGnLG1xIl+PFhg8n yh0WHiPRsHer7/f3T3vWZp+z3JZlBff5LW/MVR9f1ZbZRSNt2x+f2ajgAsax5DSOdOb7DyfvDLzs iVQze2Xzsj2Ry1d3Hlb4Z+XeOBbYg3OpcZN/FGba6LJvMEnmoiVUPf5aPRzwkLGRylNZr+MCcou/ bLer0aohZOUxx20MD60bT2JfXxb5p3gfKIjjh0MzJp6zJQNcKWOW9PiqlP93vVB7wg48PsMRcAED JEmk4V1Prfrk2faWdZRdeJV+w8ktVLrPhNjcIrKgo9bweWV7Et2pVa+r1bvTMJofNeJ+U9dPt0km 9oVcdg/Ossatqpq8rvFL5xxnPmYeV56qzrjVvI5futO77CJAt6v+qpXhssd02pnWkeJH4Ob+Dce+ /uyN/w0/nE6Y+fdSaAFlBWMu+fishj/zSN1R5pe0532pF9rFILM7xAo98Ev//LAKWhSAXZHM2Osz 6ukk9WYaX/b0Ond0bHrz9XlViDjoqBZIT8dINk7l9p8/ro77HZ3k90wNfMWBr/CFLXCCTnPGIjVX f6zQ5Fho3Fy7RdDp6f2gLcd6XBSz6umeVY+/dtbDvrPpvU1f3Ot4RVW+jufd7W1u/9ana6dItxjM +ve4yphzOMee7OBx3AV+Flb+33DQ0cm0ueR3IJjz+JYec45lH9/S5jy+p5tkS9FTF7UWtfbHByq4 wM5z2rppZfZX0nnzebHFSSd9AEF+k/HctlqTg+ts4L2436o9d1N3W+7MVUOrHFm5yLj5j93Hz1Ez tWvAWKzvC+9ZVvX4G2Ad6WMr+/zOPeVtVZW+jmdJHy5RlirGlGQd6Y90FbDwz6LAv2Hb1dVC26BV MObSj686yx5lPNUWPj7TEXABA1gNX6PBQFctV/bEu44t2/V0NZheYXXaA13lgqJtv0kNfqT+4OE2 2bHtp10CXton9c2xr5uul1kd/zCn1VaoLzSu05647cNz83Ak7MofIVY9/gZYuRXxD6fDVTfzSl/H 00Rf5299t4wqxnyUPchkgZ+FdaR++PhvOP1125bb6urGby9+eEYFYy79+HaE6Y9v2/wyCsP/Nj0J AIbJbGq/+j6ilY8LADAKFVwAAAAYhYALAAAAoxBwAQAAYBQCLgAAAIzCIjMAAAAYhQouAAAAjELA BQAAgFEIuAAAADAKARcAAABGIeACAADAKARcAAAAGIWACwAAAKMQcAEAAGAUAi4AAACMQsAFAACA UQi4AAAAMAoBFwAAAEYh4AIAAMAoBFwAAAAYhYALAAAAoxBwAQAAYBQCLgAAAIxCwAUAAIBRCLgA AAAwCgEXAAAARiHgAgAAwCj/H8zbEw2Hh1w6AAAAAElFTkSuQmCC "
       preserveAspectRatio="none"
       height="106.05143"
       width="169.68228"
       x="-73.312889"
       y="-14.801857" />
  </g>
</svg>
